^E:\REPOSITORIOS\C++\PRIMEROS_PASOS\HOLAMUNDO\HOLAMUNDO\MAIN.CPP
E:\REPOSITORIOS\C++\PRIMEROS_PASOS\HOLAMUNDO\HOLAMUNDO\RELEASE\VC140.PDB
E:\REPOSITORIOS\C++\PRIMEROS_PASOS\HOLAMUNDO\HOLAMUNDO\RELEASE\MAIN.OBJ
