^Z:\REPOSITORIOS\CPLUSPLUS\FIRSTSTEPS\HOLAMUNDO\HOLAMUNDO\X64\DEBUG\MAIN.OBJ
Z:\REPOSITORIOS\CPLUSPLUS\FIRSTSTEPS\HOLAMUNDO\X64\DEBUG\HOLAMUNDO.ILK
Z:\REPOSITORIOS\CPLUSPLUS\FIRSTSTEPS\HOLAMUNDO\X64\DEBUG\HOLAMUNDO.EXE
Z:\REPOSITORIOS\CPLUSPLUS\FIRSTSTEPS\HOLAMUNDO\X64\DEBUG\HOLAMUNDO.PDB
