^E:\REPOSITORIOS\C++\PRIMEROS_PASOS\HOLAMUNDO\HOLAMUNDO\DEBUG\MAIN.OBJ
E:\REPOSITORIOS\C++\PRIMEROS_PASOS\HOLAMUNDO\DEBUG\HOLAMUNDO.ILK
E:\REPOSITORIOS\C++\PRIMEROS_PASOS\HOLAMUNDO\DEBUG\HOLAMUNDO.EXE
E:\REPOSITORIOS\C++\PRIMEROS_PASOS\HOLAMUNDO\DEBUG\HOLAMUNDO.PDB
